<svg xmlns="http://www.w3.org/2000/svg" width="38.418" height="32.015" viewBox="0 0 38.418 32.015">
  <path id="_003-twitter" data-name="003-twitter" d="M38.418,51.79a16.1,16.1,0,0,1-4.538,1.276A8,8,0,0,0,37.345,48.6a15.5,15.5,0,0,1-4.994,1.955A7.8,7.8,0,0,0,26.6,48a7.977,7.977,0,0,0-7.871,8.08,8.523,8.523,0,0,0,.182,1.842A22.114,22.114,0,0,1,2.675,49.473,8.292,8.292,0,0,0,1.6,53.556a8.146,8.146,0,0,0,3.5,6.713,7.63,7.63,0,0,1-3.558-.995v.089A8.067,8.067,0,0,0,7.847,67.3a7.675,7.675,0,0,1-2.065.266,6.8,6.8,0,0,1-1.491-.138,7.98,7.98,0,0,0,7.359,5.627A15.576,15.576,0,0,1,1.885,76.5,14.388,14.388,0,0,1,0,76.39a21.772,21.772,0,0,0,12.082,3.625C26.576,80.015,34.5,67.7,34.5,57.028c0-.357-.012-.7-.029-1.044A15.941,15.941,0,0,0,38.418,51.79Z" transform="translate(0 -48)" fill="#00acee"/>
</svg>
