<svg xmlns="http://www.w3.org/2000/svg" width="17.486" height="16.826" viewBox="0 0 17.486 16.826">
  <g id="organization" transform="translate(0)">
    <g id="Path_125" data-name="Path 125" transform="translate(0 5.169)" fill="none">
      <path d="M0,0H5.447V11.657H0Z" stroke="none"/>
      <path d="M 1.000002861022949 1.000000953674316 L 1.000002861022949 10.65714168548584 L 4.447262763977051 10.65714168548584 L 4.447262763977051 1.000000953674316 L 1.000002861022949 1.000000953674316 M 2.86102294921875e-06 9.5367431640625e-07 L 5.447262763977051 9.5367431640625e-07 L 5.447262763977051 11.65714168548584 L 2.86102294921875e-06 11.65714168548584 L 2.86102294921875e-06 9.5367431640625e-07 Z" stroke="none" fill="#5d2567"/>
    </g>
    <g id="Path_124" data-name="Path 124" transform="translate(11.657 5.169)" fill="none">
      <path d="M.649,0H5.829V11.657H.649Z" stroke="none"/>
      <path d="M 1.649412631988525 1.000000953674316 L 1.649412631988525 10.65714168548584 L 4.828572750091553 10.65714168548584 L 4.828572750091553 1.000000953674316 L 1.649412631988525 1.000000953674316 M 0.6494126319885254 9.5367431640625e-07 L 5.828572750091553 9.5367431640625e-07 L 5.828572750091553 11.65714168548584 L 0.6494126319885254 11.65714168548584 L 0.6494126319885254 9.5367431640625e-07 Z" stroke="none" fill="#5d2567"/>
    </g>
    <g id="Path_112" data-name="Path 112" transform="translate(12.231 0.896)" fill="none">
      <path d="M-7.677-.9H.984V15.921H-7.677Z" stroke="none"/>
      <path d="M -6.677248477935791 0.1040000915527344 L -6.677248477935791 14.92130088806152 L -0.01634836196899414 14.92130088806152 L -0.01634836196899414 0.1040000915527344 L -6.677248477935791 0.1040000915527344 M -7.677248477935791 -0.8959999084472656 L 0.9836516380310059 -0.8959999084472656 L 0.9836516380310059 15.92130088806152 L -7.677248477935791 15.92130088806152 L -7.677248477935791 -0.8959999084472656 Z" stroke="none" fill="#5d2567"/>
    </g>
    <g id="Path_113" data-name="Path 113" transform="translate(14.262 2.906)" fill="none">
      <path d="M-7.677-.9h4.6V2.46h-4.6Z" stroke="none"/>
      <path d="M -6.677247524261475 0.1039992570877075 L -6.677247524261475 1.460359215736389 L -4.078987598419189 1.460359215736389 L -4.078987598419189 0.1039992570877075 L -6.677247524261475 0.1039992570877075 M -7.677247524261475 -0.896000862121582 L -3.078987598419189 -0.896000862121582 L -3.078987598419189 2.4603590965271 L -7.677247524261475 2.4603590965271 L -7.677247524261475 -0.896000862121582 Z" stroke="none" fill="#5d2567"/>
    </g>
    <g id="Path_114" data-name="Path 114" transform="translate(14.262 7.311)" fill="none">
      <path d="M-7.677-.9h4.6V2.46h-4.6Z" stroke="none"/>
      <path d="M -6.677247524261475 0.1039992570877075 L -6.677247524261475 1.460359215736389 L -4.078987598419189 1.460359215736389 L -4.078987598419189 0.1039992570877075 L -6.677247524261475 0.1039992570877075 M -7.677247524261475 -0.896000862121582 L -3.078987598419189 -0.896000862121582 L -3.078987598419189 2.4603590965271 L -7.677247524261475 2.4603590965271 L -7.677247524261475 -0.896000862121582 Z" stroke="none" fill="#5d2567"/>
    </g>
    <g id="Path_115" data-name="Path 115" transform="translate(14.262 11.716)" fill="none">
      <path d="M-7.677-.9h4.6V2.46h-4.6Z" stroke="none"/>
      <path d="M -6.677247524261475 0.1039992570877075 L -6.677247524261475 1.460359215736389 L -4.078987598419189 1.460359215736389 L -4.078987598419189 0.1039992570877075 L -6.677247524261475 0.1039992570877075 M -7.677247524261475 -0.896000862121582 L -3.078987598419189 -0.896000862121582 L -3.078987598419189 2.4603590965271 L -7.677247524261475 2.4603590965271 L -7.677247524261475 -0.896000862121582 Z" stroke="none" fill="#5d2567"/>
    </g>
  </g>
</svg>
