<svg xmlns="http://www.w3.org/2000/svg" xmlns:xlink="http://www.w3.org/1999/xlink" width="257" height="80" viewBox="0 0 257 80">
  <defs>
    <clipPath id="clip-HU-logo">
      <rect width="257" height="80"/>
    </clipPath>
  </defs>
  <g id="HU-logo" clip-path="url(#clip-HU-logo)">
    <g id="Group_2016" data-name="Group 2016" transform="translate(-355.949 -17)">
      <g id="Group_202" data-name="Group 202" transform="translate(355.949 18)">
        <path id="Path_190" data-name="Path 190" d="M213.69,256.5c0-.081,0-.168-.005-.244a36.139,36.139,0,0,0-72.266-.009v.189c-.01.158-.01.312-.01.475v.528a1.659,1.659,0,0,1,.01.231,36.154,36.154,0,0,0,24.976,33.724,4.751,4.751,0,0,0,.99-1.786l.009-.021.005-.056c.075-.358.167-.736.258-1.183l.065-.226c.451-1.865.992-3.608,1-3.636.135-.47.249-.833.347-1.076a6.364,6.364,0,0,1,.7-1.173,1.854,1.854,0,0,1,1.522-.729,2.5,2.5,0,0,1,.8.132l.5.205-.023-.531a3.7,3.7,0,0,0-.058-.535,24.251,24.251,0,0,1-6.043-2.137v-.114a24.211,24.211,0,0,1,3.727-44.661l-.033-.1a24.337,24.337,0,0,1,18.469,1.516v.11a24.222,24.222,0,0,1-3.716,44.672l.03.1a24.153,24.153,0,0,1-11.213.836c-1.343,2.789-1.585,7.415-1.585,10.333,0,.377-.025.873-.063,1.415a36.548,36.548,0,0,0,5.471.412,36.135,36.135,0,0,0,36.127-35.48c.005-.065.005-.126.005-.189,0-.154.012-.31.012-.475v-.105C213.7,256.768,213.69,256.635,213.69,256.5Z" transform="translate(-141.408 -220.764)" fill="#bd96c5"/>
        <path id="Path_191" data-name="Path 191" d="M177.141,221.315A35.181,35.181,0,0,0,166.6,290.061a5.688,5.688,0,0,0,.363-.868l.009-.021.005-.056c.075-.358.167-.736.258-1.183l.065-.226c.451-1.865.992-3.608,1-3.636.135-.47.249-.833.347-1.076a6.365,6.365,0,0,1,.7-1.173,1.854,1.854,0,0,1,1.522-.729,2.5,2.5,0,0,1,.8.132l.5.205-.023-.531a3.165,3.165,0,0,0-.5-1.679l2.318.2-.011.1c-1.911,2.505-2.228,8.069-2.228,11.4,0,.1,0,.219-.007.331a35.587,35.587,0,0,0,5.415.417,35.177,35.177,0,0,0,0-70.354Z" transform="translate(-140.991 -220.349)" fill="#461a55"/>
        <g id="Group_165" data-name="Group 165" transform="translate(11.374 11.369)">
          <path id="Path_192" data-name="Path 192" d="M147.9,252.029A24.771,24.771,0,1,1,172.672,276.8,24.777,24.777,0,0,1,147.9,252.029" transform="translate(-147.896 -227.249)" fill="#bd96c5" fill-rule="evenodd"/>
        </g>
        <path id="Path_193" data-name="Path 193" d="M160.987,266.047c0-3.332.317-8.9,2.228-11.4l.01-.1-2.318-.2a3.165,3.165,0,0,1,.5,1.679l.023.531-.5-.205a2.5,2.5,0,0,0-.8-.131,1.854,1.854,0,0,0-1.522.729,6.366,6.366,0,0,0-.7,1.173c-.1.244-.212.607-.347,1.077-.009.028-.55,1.771-1,3.636l-.065.226c-.091.447-.182.826-.258,1.183l-.005.056Z" transform="translate(-130.245 -195.475)" fill="#fff" fill-rule="evenodd"/>
        <g id="Group_166" data-name="Group 166" transform="translate(12.392 12.392)">
          <path id="Path_194" data-name="Path 194" d="M148.477,251.589a23.753,23.753,0,1,1,23.757,23.745,23.759,23.759,0,0,1-23.757-23.745" transform="translate(-148.477 -227.833)" fill="#fff" fill-rule="evenodd"/>
        </g>
        <g id="Group_167" data-name="Group 167" transform="translate(14.228 14.098)">
          <path id="Path_195" data-name="Path 195" d="M149.524,250.646a21.843,21.843,0,1,1,21.843,21.847,21.845,21.845,0,0,1-21.843-21.847" transform="translate(-149.524 -228.806)" fill="#cfb381" fill-rule="evenodd"/>
        </g>
        <g id="Group_190" data-name="Group 190" transform="translate(18.439 15.743)">
          <g id="Group_168" data-name="Group 168">
            <path id="Path_196" data-name="Path 196" d="M158.452,240.678a25.641,25.641,0,0,0-5.233,4.714l1.857.124s.607-.422.773-.014a.7.7,0,0,1-.252.729l-1.334.019.671.451-.952,1.2.023,1.9c0,.358.889.863.889.863a7.192,7.192,0,0,0,1.811.494c.561-.014,2.523-.3,3.753-.317s1.152,1.318,1.152,1.318a3.309,3.309,0,0,0-1.613-.643,13,13,0,0,0-3.75.107,3.121,3.121,0,0,1-1.755-.282,2.067,2.067,0,0,0,.095,2.991c.84.857,2.789.726,3.964.095a3.182,3.182,0,0,1,2.575.009,8.811,8.811,0,0,1-3.9,1.39A3.472,3.472,0,0,1,153.2,254.3a4.189,4.189,0,0,1,.982-3.264,9.941,9.941,0,0,0-.84-.913c-.207-.149-.279-1.332-.382-1.643s-.685-1.429-.685-1.429a1.68,1.68,0,0,1,.06-2.112,38.305,38.305,0,0,1,5.5-4.612,2.533,2.533,0,0,1,1.243-2.907l2.607-1.681q2.072-6.172,8-5.99-6.361,1.428-6.707,6.276-5.335,2.572-4.511,4.653" transform="translate(-151.926 -229.744)" fill="#461a55" fill-rule="evenodd"/>
          </g>
          <g id="Group_169" data-name="Group 169" transform="translate(8.153 10.687)">
            <path id="Path_197" data-name="Path 197" d="M160.152,236.319l-2.582-.479a6.078,6.078,0,0,1-.992,2.232A3.8,3.8,0,0,1,159.859,237Z" transform="translate(-156.577 -235.84)" fill="#461a55" fill-rule="evenodd"/>
          </g>
          <g id="Group_170" data-name="Group 170" transform="translate(9.531 9.189)">
            <path id="Path_198" data-name="Path 198" d="M162.222,249.675a18.105,18.105,0,0,0-4.609,15.571,28.1,28.1,0,0,1,3.622-12.417c.4-.775,5.543-7.9,5.543-7.9l-3.247,3.289q.258-2.338,3.152-6.532c-.482-3.688-1.609-5.927-3.4-6.7,1.418,1.527,2.254,3.9,2.479,7.132a11.536,11.536,0,0,0-3.545,7.557" transform="translate(-157.363 -234.986)" fill="#461a55" fill-rule="evenodd"/>
          </g>
          <g id="Group_171" data-name="Group 171" transform="translate(12.825 0.316)">
            <path id="Path_199" data-name="Path 199" d="M159.242,234.937l2.105-1.061q2.2-3.868,8.646-3.832-8.212-.9-10.751,4.893" transform="translate(-159.242 -229.924)" fill="#461a55" fill-rule="evenodd"/>
          </g>
          <g id="Group_172" data-name="Group 172" transform="translate(20.291 1.461)">
            <path id="Path_200" data-name="Path 200" d="M163.5,230.682a17.215,17.215,0,0,1,12.573,7.484q-3.871-8.48-12.573-7.484" transform="translate(-163.501 -230.577)" fill="#461a55" fill-rule="evenodd"/>
          </g>
          <g id="Group_173" data-name="Group 173" transform="translate(19.799 3.327)">
            <path id="Path_201" data-name="Path 201" d="M165.119,238.044q1.228-5.817-1.9-6.4c1.551,1.182,1.832,2.95.857,5.289Z" transform="translate(-163.22 -231.642)" fill="#461a55" fill-rule="evenodd"/>
          </g>
          <g id="Group_174" data-name="Group 174" transform="translate(16.775 3.844)">
            <path id="Path_202" data-name="Path 202" d="M162.992,236.273l-.068-1.59-1.429.685c.026-2.388.672-3.536,1.953-3.424q1.788.928.929,3.748c-.38.7-.838.889-1.385.58" transform="translate(-161.495 -231.937)" fill="#461a55" fill-rule="evenodd"/>
          </g>
          <g id="Group_175" data-name="Group 175" transform="translate(24.793 4.698)">
            <path id="Path_203" data-name="Path 203" d="M166.069,232.424a9.554,9.554,0,0,1,.8,1.883s2.048-.244,4.39,2.754a6.9,6.9,0,0,0-5.194-4.637" transform="translate(-166.069 -232.424)" fill="#461a55" fill-rule="evenodd"/>
          </g>
          <g id="Group_176" data-name="Group 176" transform="translate(26.183 7.377)">
            <path id="Path_204" data-name="Path 204" d="M167.6,236.047l-.736-2.095a5.492,5.492,0,0,1,3.461,3.147c-1.369-1.434-2.552-1.189-2.724-1.052" transform="translate(-166.862 -233.952)" fill="#461a55" fill-rule="evenodd"/>
          </g>
          <g id="Group_177" data-name="Group 177" transform="translate(22.663 5.464)">
            <path id="Path_205" data-name="Path 205" d="M164.854,232.861a12.573,12.573,0,0,1,2.407,7.389c.114,4.668.87,6.411,2.021,8.5-1.082-3.447-.493-6.4-.454-8.844s-1.916-5.406-3.974-7.042" transform="translate(-164.854 -232.861)" fill="#461a55" fill-rule="evenodd"/>
          </g>
          <g id="Group_178" data-name="Group 178" transform="translate(27.931 10.962)">
            <path id="Path_206" data-name="Path 206" d="M167.859,236a12.37,12.37,0,0,1,.268,5.964,10.232,10.232,0,0,0,1.055,7.214c.9,1.741,2.328,2.824,2.957.8a6.367,6.367,0,0,0-.726-5.189,4.03,4.03,0,0,1-1.252,5.087c-.7-1.15-.563-2.442-.529-4.709s.561-5.987-1.774-9.167" transform="translate(-167.859 -235.997)" fill="#461a55" fill-rule="evenodd"/>
          </g>
          <g id="Group_179" data-name="Group 179" transform="translate(22.13 20.379)">
            <path id="Path_207" data-name="Path 207" d="M167.22,253.479c.025-.412.046-.924.025-1.539-3.4-3.878-2.091-10.571-2.091-10.571a14.419,14.419,0,0,0,1.327,11.22,9.668,9.668,0,0,0,.74.891" transform="translate(-164.55 -241.369)" fill="#461a55" fill-rule="evenodd"/>
          </g>
          <g id="Group_180" data-name="Group 180" transform="translate(26.152 11.807)">
            <path id="Path_208" data-name="Path 208" d="M173.116,241.365c-2.854-2.936-2.51-4.886-2.51-4.886-.735,3.832,1.078,5.226,2.344,6.861,1.246,1.641,2.78,3.42,2.5,5.994-1.485,7.941-5.768,9.037-8.43,7.565a5.859,5.859,0,0,1-.175,1.416c1.783,1.138,4.32,1.383,7.319-2.256,4.53-5.506,1.8-11.774-1.047-14.694" transform="translate(-166.844 -236.479)" fill="#461a55" fill-rule="evenodd"/>
          </g>
          <g id="Group_181" data-name="Group 181" transform="translate(25.836 23.442)">
            <path id="Path_209" data-name="Path 209" d="M168.331,243.116s-.619.529-.275,2.582.417,4.7-1.392,4.321c0,0,.733,1.881,1.709,1.11s1.01-2.372.517-3.792a10.726,10.726,0,0,1-.559-4.221" transform="translate(-166.664 -243.116)" fill="#461a55" fill-rule="evenodd"/>
          </g>
          <g id="Group_182" data-name="Group 182" transform="translate(23.603 27.318)">
            <path id="Path_210" data-name="Path 210" d="M167.352,245.327s-.549.7-.508,3.445-.154,3.646-1.453,2.807c0,0,.272,2.253,1.25,1.792s1.481-2.624,1.224-4-.892-2.617-.512-4.046" transform="translate(-165.39 -245.327)" fill="#461a55" fill-rule="evenodd"/>
          </g>
          <g id="Group_183" data-name="Group 183" transform="translate(18.646 30.78)">
            <path id="Path_211" data-name="Path 211" d="M166.932,247.3a16.929,16.929,0,0,0-.394,3.184c-.026,1.651-.831,3.415-2.225,3.759s-1.814-.857-1.609-1.685c0,0-.884,3.112,1.767,3.341,2.023.161,3.156-2.419,2.852-4.651a24.608,24.608,0,0,1-.391-3.948" transform="translate(-162.562 -247.302)" fill="#461a55" fill-rule="evenodd"/>
          </g>
          <g id="Group_184" data-name="Group 184" transform="translate(12.717 22.057)">
            <path id="Path_212" data-name="Path 212" d="M166.6,242.326s1.262,9.57-3.082,13.593c-2.044,1.9-4.837,1.381-3.927-3.825,0,0-1.8,6.733,2.135,6.376s6.507-8.415,4.874-16.144" transform="translate(-159.181 -242.326)" fill="#461a55" fill-rule="evenodd"/>
          </g>
          <g id="Group_185" data-name="Group 185" transform="translate(11.039 31.928)">
            <path id="Path_213" data-name="Path 213" d="M160.288,247.957s-2.283,3.881-.494,7.17a1.9,1.9,0,0,0,2.56.533c-1.374,1.478-2.987,1.131-3.757-.433-1.122-2.309.538-6.125,1.692-7.27" transform="translate(-158.223 -247.957)" fill="#461a55" fill-rule="evenodd"/>
          </g>
          <g id="Group_186" data-name="Group 186" transform="translate(21.652 11.986)">
            <path id="Path_214" data-name="Path 214" d="M165.895,236.683s3.487,7.368.168,13.518a14.534,14.534,0,0,0-.444-11.477s.012-.216-.3.172c-.249.324-.663,1.011-.992.379s1.248-3.234,1.572-2.591" transform="translate(-164.277 -236.581)" fill="#461a55" fill-rule="evenodd"/>
          </g>
          <g id="Group_187" data-name="Group 187" transform="translate(31.621 9.519)">
            <path id="Path_215" data-name="Path 215" d="M170.089,235.174s3.2,2.63,3.734,10.687c0,0-.338-5.263-3.425-8.46a6.976,6.976,0,0,0,.589,3.5c.251.23.422-1.071.282-1.816.682,1.534.736,2.74.233,2.945s-1.97-2.382-1.413-6.854" transform="translate(-169.964 -235.174)" fill="#461a55" fill-rule="evenodd"/>
          </g>
          <g id="Group_188" data-name="Group 188" transform="translate(15.716 28.929)">
            <path id="Path_216" data-name="Path 216" d="M161.4,247.64a12.935,12.935,0,0,0,1.175-1.394c.081,2.682-.026,3.371-1.686,5.573a6.338,6.338,0,0,0,.512-4.179" transform="translate(-160.891 -246.246)" fill="#461a55" fill-rule="evenodd"/>
          </g>
          <g id="Group_189" data-name="Group 189" transform="translate(12.182 24.608)">
            <path id="Path_217" data-name="Path 217" d="M162.614,244.445c.193-.4,1.913-1.2,2.712-.123.309.524-2.405,4.774-6.451,6.514a15.543,15.543,0,0,0,4.526-4.753c.668-1.182-1.2-.831-.787-1.639" transform="translate(-158.875 -243.781)" fill="#461a55" fill-rule="evenodd"/>
          </g>
        </g>
        <g id="Group_191" data-name="Group 191" transform="translate(23.303 67.544)">
          <path id="Path_218" data-name="Path 218" d="M182.022,262.419c.533-.214.624.046-.175.351-5.091,1.962-10.836,1.821-15.958.74a75.174,75.174,0,0,1-11.188-3.135l.493-1.082s26.193,3.389,26.829,3.126" transform="translate(-154.701 -259.293)" fill="#dbbd81" fill-rule="evenodd"/>
        </g>
        <g id="Group_192" data-name="Group 192" transform="translate(25.151 58.323)">
          <path id="Path_219" data-name="Path 219" d="M155.755,254.818l.338-.785c.522.252,5.578,2.73,8.29,3.655,5.861,2.018,11.207,3.311,15.069,3.311a30.506,30.506,0,0,0,5.5-.459,20.824,20.824,0,0,0,4.214-1.234,10.909,10.909,0,0,0,2.91-2.65c.335-.426.61-.685.628-.449.377,3.455-3.683,5.79-9.375,6.53-5.785.752-11.325-1.883-16.7-3.1a27.523,27.523,0,0,1-10.871-4.821" transform="translate(-155.755 -254.033)" fill="#bd96c5" fill-rule="evenodd"/>
        </g>
        <g id="Group_193" data-name="Group 193" transform="translate(25.151 58.654)">
          <path id="Path_220" data-name="Path 220" d="M155.755,254.865l.4-.643c.528.244,5.513,2.579,8.225,3.513,5.861,2.018,11.207,3.31,15.069,3.31a29.778,29.778,0,0,0,5.5-.465,19.812,19.812,0,0,0,5.743-1.948c.254-.088-.06.27-.181.377-1.643,1.481-5.568,2.521-7.407,2.752-5.792.741-11.1-.857-16.484-2.084a27.447,27.447,0,0,1-10.871-4.812" transform="translate(-155.755 -254.222)" fill="#dbbd81" fill-rule="evenodd"/>
        </g>
        <g id="Group_194" data-name="Group 194" transform="translate(23.405 59.459)">
          <path id="Path_221" data-name="Path 221" d="M187.866,260.471l.408.619s.167.191-1.3,1.4a23.852,23.852,0,0,1-5.256,3.471c-5.108,1.851-10.55,1.488-15.869.282a61.524,61.524,0,0,1-11.086-3.49l2.475-8.068a77.651,77.651,0,0,0,7.675,3.461c5.917,2.03,9.509,3.18,15.278,3.231a24.685,24.685,0,0,0,7.678-.9" transform="translate(-154.759 -254.681)" fill="#bd96c5" fill-rule="evenodd"/>
        </g>
        <g id="Group_195" data-name="Group 195" transform="translate(24.35 60.975)">
          <path id="Path_222" data-name="Path 222" d="M164.174,258.589c6,2.062,9.7,3.245,15.6,3.283,5.324.051,7.149-.766,7.149-.766a24.015,24.015,0,0,1-6.23,4.1c-3.815,1.418-10.05,1.317-15.25.075A77.575,77.575,0,0,1,155.3,262.2l2.076-6.653a59.749,59.749,0,0,0,6.8,3.043" transform="translate(-155.298 -255.546)" fill="#dbbd81" fill-rule="evenodd"/>
        </g>
        <g id="Group_196" data-name="Group 196" transform="translate(30.694 57.79)">
          <path id="Path_223" data-name="Path 223" d="M171.846,253.729s-3.415,1.841-3.32,12.729c.037,4.409,1.134,6.409,1.134,6.409l-5.4-3.452-5.342,3.471s.58-4.53.58-6.376.075-9.74,2.73-11.731a.347.347,0,0,1,.3-.1,21.358,21.358,0,0,0,9.319-.952" transform="translate(-158.917 -253.729)" fill="#dbbd81" fill-rule="evenodd"/>
        </g>
        <g id="Group_197" data-name="Group 197" transform="translate(30.095 57.302)">
          <path id="Path_224" data-name="Path 224" d="M158.575,274.111l.081-1.061c.014-.126.566-4.528.566-6.33,0-3.7.382-10.166,2.914-12.122a.884.884,0,0,1,.6-.233h.093l.17.021c.519.044,1.406.123,2.519.123a18.287,18.287,0,0,0,6.4-1.057l.429.948c-.023.016-3.436,1.679-3.385,11.987.04,5.059.635,4.817.857,5.794l.682,1.883-5.987-3.822Zm5.945-4.663,4.712,2.8a11.531,11.531,0,0,1-.977-5.571c-.047-6.637,1.189-10.024,2.24-11.686a21.3,21.3,0,0,1-4.973.563h0c-1.157,0-2.067-.082-2.612-.123l-.119-.016c-1.576,1.2-2.5,5.426-2.745,11.295-.089,2.141-.366,2.835-.626,5.966Z" transform="translate(-158.575 -253.451)" fill="#bd96c5"/>
        </g>
        <g id="Group_198" data-name="Group 198" transform="translate(32.383 58.933)">
          <path id="Path_225" data-name="Path 225" d="M163.5,267.284l-3.622,2.4.021-.249a18.177,18.177,0,0,0,.261-3.415c0-5.771.912-9.836,2.565-11.463l.16.167c-1.609,1.574-2.5,5.592-2.5,11.3a16.05,16.05,0,0,1-.238,3.2l3.35-2.205,3.513,2.321c-.6-1.639-.868-1.518-.85-3.359.072-4.921.622-8.934,1.9-11.595l.205.1c-1.262,2.626-1.9,6.6-1.858,11.493.009,1.451.486,2.314,1.124,4.313Z" transform="translate(-159.88 -254.381)" fill="#bd96c5"/>
        </g>
        <g id="Group_199" data-name="Group 199" transform="translate(20.224 57.917)">
          <path id="Path_226" data-name="Path 226" d="M158.362,264.6c.089-.4.177-.8.277-1.2a.807.807,0,0,1,.058-.242c.458-1.9,1.006-3.646,1.006-3.646.128-.445.251-.845.358-1.119a7.864,7.864,0,0,1,.745-1.253,2.44,2.44,0,0,1,2.731-.7c-.058-1.762-1.336-2.782-3.333-2.621-1.981.168-2.687,2.412-2.715,3.475s-1.259,1.667-1.93,2.155c-.694.477-1.52.554-1.96,1.045-.465.489.6,1.411,1.62,1.031l.8-.307a6.278,6.278,0,0,1-.941,2.652,2.025,2.025,0,0,1-2.135.545s-.184,2.9,2.51,2.817a3.254,3.254,0,0,0,2.9-2.605V264.6" transform="translate(-152.944 -253.801)" fill="#dbbd81" fill-rule="evenodd"/>
        </g>
        <g id="Group_200" data-name="Group 200" transform="translate(19.882 57.569)">
          <path id="Path_227" data-name="Path 227" d="M155.49,267.726h0a2.58,2.58,0,0,1-1.951-.759,3.538,3.538,0,0,1-.784-2.43l.026-.447.431.137a2.081,2.081,0,0,0,.6.089,1.351,1.351,0,0,0,1.136-.512,5.119,5.119,0,0,0,.764-1.9L155.5,262a1.813,1.813,0,0,1-.626.117,1.673,1.673,0,0,1-1.509-.861.763.763,0,0,1,.116-.845,3,3,0,0,1,1.138-.664,4.41,4.41,0,0,0,.9-.438c.1-.082.23-.154.366-.247.619-.412,1.38-.926,1.4-1.63.04-1.164.84-3.622,3.038-3.808.144-.007.3-.018.435-.018a2.965,2.965,0,0,1,3.28,2.98l.023.531-.5-.2a2.5,2.5,0,0,0-.8-.132,1.854,1.854,0,0,0-1.522.729,6.364,6.364,0,0,0-.7,1.173c-.1.244-.212.607-.349,1.076-.007.028-.549,1.771-1,3.636l-.065.226c-.091.447-.182.826-.258,1.183l-.005.056-.009.021c-.566,1.785-1.715,2.8-3.231,2.847Zm-2.032-2.742a2.6,2.6,0,0,0,.591,1.508,1.871,1.871,0,0,0,1.441.538h.1a2.919,2.919,0,0,0,2.582-2.316v-.033c.077-.37.165-.75.268-1.192a1.208,1.208,0,0,1,.068-.3c.458-1.869,1-3.613,1.006-3.632.142-.489.261-.875.366-1.141l.012-.023a7.33,7.33,0,0,1,.787-1.315,2.564,2.564,0,0,1,2.072-.992,2.939,2.939,0,0,1,.54.046,2.312,2.312,0,0,0-2.542-1.828c-.109,0-.245,0-.377.01-1.741.151-2.367,2.181-2.4,3.143-.021,1.06-1,1.706-1.709,2.182-.137.081-.247.161-.356.235a4.462,4.462,0,0,1-1.043.517,2.468,2.468,0,0,0-.87.489c-.009.009-.021.026,0,.093a1.026,1.026,0,0,0,.877.449,1.118,1.118,0,0,0,.377-.068l1.332-.521-.067.563a6.753,6.753,0,0,1-1.006,2.831,2.048,2.048,0,0,1-1.693.791A1.814,1.814,0,0,1,153.459,264.984Z" transform="translate(-152.749 -253.603)" fill="#bd96c5"/>
        </g>
        <g id="Group_201" data-name="Group 201" transform="translate(33.753 60.602)">
          <path id="Path_228" data-name="Path 228" d="M162.143,257.784l-.719-.258v-2.193h.107a9.626,9.626,0,0,0,1.436,1.367,1.845,1.845,0,0,0,1.02.4.81.81,0,0,0,.58-.223.692.692,0,0,0,.224-.512.87.87,0,0,0-.154-.494,1.052,1.052,0,0,0-.475-.33v-.091a1.218,1.218,0,0,1,.775.349.956.956,0,0,1,.272.708,1.049,1.049,0,0,1-.286.749.922.922,0,0,1-.694.307,1.321,1.321,0,0,1-.554-.133,3.679,3.679,0,0,1-.945-.656c-.5-.456-.785-.729-.9-.852v.971a2.085,2.085,0,0,0,.026.414.642.642,0,0,0,.084.214.559.559,0,0,0,.2.163Z" transform="translate(-160.088 -255.333)" fill="#461a55"/>
          <path id="Path_229" data-name="Path 229" d="M163.024,257.018a2.855,2.855,0,0,1,1.09.2,1.591,1.591,0,0,1,.684.51.925.925,0,0,1,.181.51.994.994,0,0,1-.44.768,2.338,2.338,0,0,1-1.469.417,3.013,3.013,0,0,1-1.092-.177,1.389,1.389,0,0,1-.647-.479.945.945,0,0,1-.212-.559,1.015,1.015,0,0,1,.624-.876A2.587,2.587,0,0,1,163.024,257.018Zm-.072.54a3.475,3.475,0,0,0-1.248.189c-.277.107-.414.256-.414.468a.449.449,0,0,0,.137.3.8.8,0,0,0,.445.246,5.312,5.312,0,0,0,1.325.126,3.6,3.6,0,0,0,1.059-.13.97.97,0,0,0,.445-.258.409.409,0,0,0,.093-.268.435.435,0,0,0-.168-.335,1.42,1.42,0,0,0-.721-.268A6.141,6.141,0,0,0,162.952,257.558Z" transform="translate(-160.319 -254.064)" fill="#461a55"/>
          <path id="Path_230" data-name="Path 230" d="M164.384,258.836l.44.906v.088h-3.138a1.563,1.563,0,0,0-.384.026.2.2,0,0,0-.123.11.808.808,0,0,0-.04.333h-.1v-1.394h.1a.821.821,0,0,0,.04.338.255.255,0,0,0,.1.1,1.426,1.426,0,0,0,.4.028H163.7a3.022,3.022,0,0,0,.519-.025.21.21,0,0,0,.128-.068.244.244,0,0,0,.042-.121.625.625,0,0,0-.091-.277Z" transform="translate(-160.38 -252.695)" fill="#461a55"/>
          <path id="Path_231" data-name="Path 231" d="M162.038,262.53h-.394v-.5h-.982v-.451h.982v-1.571H162l2.456,1.716v.3h-2.414Zm0-.95h1.832l-1.832-1.3Z" transform="translate(-160.662 -251.812)" fill="#461a55"/>
        </g>
        <path id="Path_232" data-name="Path 232" d="M155.792,272.666a2.84,2.84,0,0,1-.358.163l-.435-.544c-.061-.063-.137-.137-.233-.226l-1.231.607c-.421.245-.733.436-.954.55l-.117.06c-.137.06-.466.244-1,.535l-.121.086-.414.2-.408.249-.207.119a6.188,6.188,0,0,0-.629.394.76.76,0,0,0-.1.105.783.783,0,0,0,.025.1c.019.026.028.07.046.1a3.782,3.782,0,0,0,.174.433l.019.086a1.4,1.4,0,0,1,.075.216.8.8,0,0,1-.177.105.417.417,0,0,1-.172.06c-.04-.053-.1-.146-.167-.254s-.109-.2-.137-.237c-.17-.415-.316-.717-.414-.908-.056-.084-.091-.172-.144-.263a2.163,2.163,0,0,0-.123-.24c-.054-.107-.207-.356-.472-.747a1.093,1.093,0,0,1-.138-.207,3,3,0,0,1-.156-.307.815.815,0,0,0,.14-.089c.061-.021.128-.054.216-.088l.6.782a.162.162,0,0,0,.193.023l.167-.107.084-.047.207-.109.167-.088.037-.016a.127.127,0,0,1,.082-.054l.608-.335a1.423,1.423,0,0,1,.13-.081l.151-.077a1.449,1.449,0,0,0,.167-.081c.049-.033.16-.1.33-.2-.032-.1-.067-.182-.088-.242l-.391-.721-.195-.344-.468-.87-.489-.826a1.951,1.951,0,0,0-.226-.326c-.112.054-.38.195-.808.426l-.219.105-.8.475-.3.233a.173.173,0,0,0-.032.107,3.555,3.555,0,0,0,.149.768,1.632,1.632,0,0,1,.044.2,1.165,1.165,0,0,1-.293.114.412.412,0,0,1-.075-.125l-.254-.459a6.914,6.914,0,0,0-.442-.931c-.035-.074-.068-.125-.091-.168l-.37-.61a.694.694,0,0,0-.1-.154,1.836,1.836,0,0,1-.233-.335c-.049-.093-.1-.2-.161-.337a2.963,2.963,0,0,1,.345-.168c.224.258.377.431.444.5a1.8,1.8,0,0,0,.273.205l.1-.025.1-.044.109-.072.07-.03a1.375,1.375,0,0,0,.158-.067l.121-.068c.135-.081.217-.13.235-.144l.607-.337.452-.261.615-.326c.149-.072.426-.238.85-.486l.68-.386.563-.31c.107-.067.233-.126.387-.205a1.163,1.163,0,0,0-.056-.216,3.974,3.974,0,0,1-.177-.784l.335-.2c.068.128.114.2.123.224a5.139,5.139,0,0,1,.268.54,12.745,12.745,0,0,0,.659,1.283,10.1,10.1,0,0,0,.619.982.558.558,0,0,1,.063.181,1.455,1.455,0,0,1-.344.135l-.286-.321-.265-.344c-.035-.026-.07-.068-.128-.121a13.794,13.794,0,0,0-1.313.663l-.421.2a5.187,5.187,0,0,1-.582.379,3.528,3.528,0,0,0,.186.387l1.218,2.237.018.053.009.03a.545.545,0,0,1,.047.075c.049.079.088.153.128.21l.068.135a.741.741,0,0,0,.151.184l.37-.177.061-.03a1.116,1.116,0,0,1,.16-.1l1.483-.824c.079-.049.165-.1.244-.154l.009-.056-.284-.78c-.016-.042-.019-.07-.026-.088a.278.278,0,0,1-.007-.135c.061-.053.11-.084.133-.1l.184-.074c.065.121.119.212.167.294s.07.142.105.2a.625.625,0,0,1,.035.089l.356.691c.075.167.189.4.347.68l.063.107c.086.13.13.2.144.223C155.37,271.944,155.55,272.244,155.792,272.666Zm-4.626-8.808a4.745,4.745,0,0,0-.184-.745l-.079-.212c-.074-.861-.131-1.4-.158-1.62a.628.628,0,0,0-.131.012c-.053.012-.137.023-.265.047v.394a1.022,1.022,0,0,1-.065.5.251.251,0,0,1-.193.107,1.205,1.205,0,0,1-.4-.045c-.708-.132-1.157-.217-1.35-.274l-.319-2.062,1-.594.491-.3a.433.433,0,0,1,.146-.049.183.183,0,0,1,.128.033,1,1,0,0,1,.152.3l.23.58a2.079,2.079,0,0,0,.365-.04l-.053-.263-.189-.912c-.03-.126-.07-.333-.112-.614-.039-.259-.072-.543-.1-.878s-.054-.621-.095-.884a.824.824,0,0,0-.126.012c-.053.011-.145.035-.263.068a2.128,2.128,0,0,0-.04.5.713.713,0,0,1-.063.337.927.927,0,0,1-.24.209,6.286,6.286,0,0,1-.65.4c-.321.186-.556.322-.708.419-.268.17-.61.377-1.026.613s-.849.5-1.283.787l-2.077,1.292-.093.063.03.247c.023.109.04.224.065.345l3.567.747,3.033.633a.991.991,0,0,1,.347.179,1.56,1.56,0,0,1,.216.482c.065.163.114.281.144.344l.379-.049Zm-3.424-1.955c-.123-.848-.2-1.339-.223-1.494l-.023-.133c-.314.156-.659.354-1.064.594s-.694.435-.91.58Zm2.377-7.533c.046-.547.093-1.008.152-1.4l.153-.919a6.76,6.76,0,0,0,.07-.927,3.95,3.95,0,0,0-.146-1,1.985,1.985,0,0,0-.414-.715,1.309,1.309,0,0,0-.491-.408,2.206,2.206,0,0,0-.731-.24,1.6,1.6,0,0,0-1.15.268,2.23,2.23,0,0,0-.854,1.157,4.332,4.332,0,0,0-.265-.749,1.638,1.638,0,0,0-.412-.515,1.334,1.334,0,0,0-.575-.23,1.969,1.969,0,0,0-.579.017,1.275,1.275,0,0,0-.522.244,1.34,1.34,0,0,0-.421.421,2.117,2.117,0,0,0-.244.417,3.632,3.632,0,0,0-.254.883l-.047.345c-.032.156-.035.249-.044.282,0,.049-.009.091-.009.133l-.028.21-.191,1.781-.146,1.218.386.04c.079-.279.128-.454.144-.524a.627.627,0,0,1,.11-.314c.025-.021.035-.04.06-.044a1.476,1.476,0,0,1,.512.018c1.017.119,1.641.195,1.886.228l2.309.314a5.658,5.658,0,0,1,.884.172.981.981,0,0,1,.233.128,2.756,2.756,0,0,1,.058.587c0,.124,0,.23.007.317l.437.079C150.067,254.946,150.107,254.529,150.119,254.371Zm-3.89-1.816a4.779,4.779,0,0,0,.1-.51,2.091,2.091,0,0,0-.128-1.278,1.221,1.221,0,0,0-.978-.561,1.138,1.138,0,0,0-.929.272,1.813,1.813,0,0,0-.517,1.141c-.011.152-.023.366-.023.6.086.019.2.033.359.051.314.025.738.079,1.3.153l.459.084A2.963,2.963,0,0,1,146.229,252.555Zm3.466.414a1.738,1.738,0,0,0,.24-.638,2.266,2.266,0,0,0-.046-1.034,1.262,1.262,0,0,0-.436-.645,1.959,1.959,0,0,0-.817-.3,1.715,1.715,0,0,0-.868.075,1.4,1.4,0,0,0-.677.578,3.184,3.184,0,0,0-.3,1.136,1.142,1.142,0,0,0-.018.48l.664.088.8.128,1.25.158A.72.72,0,0,0,149.7,252.969Zm1.79-5.634c.109-.351.2-.622.261-.8l.384-.894c.2-.389.312-.6.338-.647a.7.7,0,0,0,.067-.128,1.443,1.443,0,0,1,.065-.188.471.471,0,0,1,.04-.109.946.946,0,0,0-.175-.07,1.171,1.171,0,0,0-.261-.084c-.1.165-.154.266-.172.289a3.051,3.051,0,0,1-.321.533.25.25,0,0,1-.117-.032l-.193-.075-1.02-.41-.673-.282-1.343-.538c-.314-.123-.749-.305-1.317-.545-.1-.028-.221-.07-.365-.128a2.257,2.257,0,0,1-.365-.189,2.674,2.674,0,0,1,.047-.482c.026-.189.046-.363.053-.519-.088-.04-.167-.075-.221-.105l-.161-.053c-.023.067-.074.223-.158.468-.149.456-.265.789-.347.982-.018.046-.07.158-.151.333l-.64,1.427.445.168c.025-.042.051-.105.082-.168a2.384,2.384,0,0,1,.4-.636,1.191,1.191,0,0,1,.182.033l.219.075.591.221.263.121.673.266c.021.007.368.16,1.027.449l.281.105,1.154.475.6.244a.871.871,0,0,1,.393.263,2.122,2.122,0,0,1-.025.566c-.028.172-.04.3-.054.373l.375.149C151.369,247.723,151.417,247.569,151.485,247.334Zm2.3-5.044c.3-.463.554-.854.791-1.171l.563-.736a6.062,6.062,0,0,0,.5-.794,4.365,4.365,0,0,0,.34-.938,2.351,2.351,0,0,0-.028-.836,1.5,1.5,0,0,0-.244-.589,2.792,2.792,0,0,0-.529-.558,1.626,1.626,0,0,0-1.15-.3,2.314,2.314,0,0,0-1.3.622,5.942,5.942,0,0,0,.128-.789,1.567,1.567,0,0,0-.133-.647,1.341,1.341,0,0,0-.4-.473,1.644,1.644,0,0,0-.519-.254,1.44,1.44,0,0,0-.571-.042,1.775,1.775,0,0,0-.572.186,3.436,3.436,0,0,0-.408.254,3.218,3.218,0,0,0-.628.656l-.209.286c-.1.123-.149.2-.175.235a.432.432,0,0,0-.075.107l-.119.177-1.012,1.476-.7,1.01.324.226c.2-.214.326-.352.373-.4a.69.69,0,0,1,.242-.224.11.11,0,0,1,.082-.014,2.677,2.677,0,0,1,.442.254c.836.58,1.359.94,1.543,1.085l1.9,1.357a8.169,8.169,0,0,1,.7.573.876.876,0,0,1,.14.219,2.094,2.094,0,0,1-.224.544l-.137.293.349.263C153.47,242.773,153.708,242.413,153.789,242.291Zm-2.586-3.438a3.432,3.432,0,0,0,.328-.4,2.2,2.2,0,0,0,.489-1.187,1.2,1.2,0,0,0-.6-.954,1.127,1.127,0,0,0-.94-.2,1.793,1.793,0,0,0-.994.764c-.086.132-.189.309-.307.533.07.054.167.114.291.207.263.17.624.412,1.066.743l.37.282C150.973,238.688,151.066,238.755,151.2,238.853Zm2.87,2a1.66,1.66,0,0,0,.507-.452,2.307,2.307,0,0,0,.449-.931,1.176,1.176,0,0,0-.089-.78,1.767,1.767,0,0,0-.584-.647,1.55,1.55,0,0,0-.8-.335,1.372,1.372,0,0,0-.866.191,3.457,3.457,0,0,0-.8.854,1.522,1.522,0,0,0-.242.414l.543.4.656.487,1.026.724A.5.5,0,0,0,154.073,240.852Zm5.675-13.62c.393-.156.647-.2.766-.126a3.284,3.284,0,0,1,.514.92l1.054,2.386a7.411,7.411,0,0,0,.547,1.033,2.147,2.147,0,0,0,.782.7,2.12,2.12,0,0,0,1.082.17,3.98,3.98,0,0,0,1.425-.382,4.417,4.417,0,0,0,1.118-.684,2.757,2.757,0,0,0,.678-.773,2.063,2.063,0,0,0,.272-.792,1.766,1.766,0,0,0-.042-.629,9.861,9.861,0,0,0-.54-1.4l-.5-1c-.116-.247-.233-.486-.349-.717a1.052,1.052,0,0,1-.1-.205c-.03-.063-.079-.158-.124-.277-.091-.2-.167-.345-.21-.428a1.591,1.591,0,0,1-.133-.256.231.231,0,0,1-.016-.212,1.692,1.692,0,0,1,.342-.237,2.1,2.1,0,0,0,.366-.233.356.356,0,0,0-.046-.142.731.731,0,0,0-.126-.216l-.089.024a8.616,8.616,0,0,1-.91.454l-.971.382-.4.174.16.391.074-.016.463-.217a.618.618,0,0,1,.442,0c.086.033.175.153.279.347l.14.247c.542.977.989,1.86,1.338,2.668a4.366,4.366,0,0,1,.37,1.069,2.382,2.382,0,0,1-.028.628.976.976,0,0,1-.175.419,1.611,1.611,0,0,1-.354.436,3.887,3.887,0,0,1-.843.521,1.957,1.957,0,0,1-.917.158,1.263,1.263,0,0,1-.638-.216,2.135,2.135,0,0,1-.647-.8l-.619-1.22-.368-.88-.2-.389-.2-.473-.089-.181c-.033-.061-.074-.145-.121-.251a1.959,1.959,0,0,1-.212-.624c.03-.1.137-.195.33-.277a4.186,4.186,0,0,0,.559-.295l-.009-.039-.142-.291-.033-.067a3.272,3.272,0,0,1-.393.186c-.2.091-.417.2-.666.33s-.514.245-.778.359c-.081.035-.344.142-.792.312-.182.075-.365.149-.536.221-.06.035-.119.061-.186.095l.2.387A1.033,1.033,0,0,0,159.747,227.232Zm11.395-3.958a1.257,1.257,0,0,1,.437.273.522.522,0,0,1,.131.219,3,3,0,0,1,.11.875l.061,1.111.051,1.776.005.31c0,.121.014.477,0,1.061,0,.2-.016.321-.081.37a1.251,1.251,0,0,1-.54.089c-.126,0-.189-.005-.214,0a1.639,1.639,0,0,0-.254.03v.2c0,.063.016.135.016.223a.936.936,0,0,0,.191.016l.314-.03c.195-.019.582-.051,1.162-.079.622.04,1,.06,1.111.049l.216-.014-.04-.459a1.159,1.159,0,0,0-.146-.031,4.288,4.288,0,0,1-.931-.084c-.033-.075-.058-.131-.074-.165a1.467,1.467,0,0,1-.026-.2c-.046-.349-.079-.67-.1-.968l-.06-.714-.005-.386c-.005-.133-.005-.254-.012-.379l-.128-2.034.919.777c.379.315.8.689,1.267,1.111l.707.68.957.9,1.373,1.271.685.654.624-.044-.014-.294c0-.028-.012-.117-.032-.265l.011-.295-.03-.289-.023-.668a2.185,2.185,0,0,0-.018-.3l-.128-1.918c0-.126-.021-.235-.026-.33-.039-.309-.065-.729-.089-1.257-.007-.245-.019-.393-.019-.461-.018-.135-.025-.209-.025-.231a.344.344,0,0,1,.044-.205,3.021,3.021,0,0,1,.286-.2,2.268,2.268,0,0,1,.4-.128.773.773,0,0,0,.249-.11l-.021-.356c-.07,0-.138.007-.228.014l-1.185.079-1.08.065-.13.025v.324a1.666,1.666,0,0,0,.447.111,1.021,1.021,0,0,1,.542.167c.053.047.079.187.089.426,0,.077.042.351.093.824a7.163,7.163,0,0,1,.061.82c.025.3.046.563.067.778s.049.515.072.887l.044.633,0,.137c-2.307-2.137-3.639-3.378-4.008-3.738s-.845-.787-1.425-1.278c-.07,0-.131,0-.17,0s-.138.009-.338.026-.305.019-.335.025a.985.985,0,0,1-.124-.005c-.219,0-.335.005-.387.005-.077,0-.24.012-.456.032l-.152.005-.477.019.04.384A3.907,3.907,0,0,1,171.142,223.274Zm10.213,6.746c.368.058.642.105.834.147l.941.245c.412.14.636.233.687.251a.791.791,0,0,0,.135.049c.011,0,.093.014.2.04a.539.539,0,0,1,.1.021c.026-.079.04-.137.058-.181a2.252,2.252,0,0,0,.039-.268c-.172-.074-.279-.114-.305-.133a3.982,3.982,0,0,1-.578-.238.366.366,0,0,1,.019-.123l.051-.207.256-1.066.189-.707.347-1.408c.075-.324.2-.778.359-1.374.014-.1.044-.221.075-.382a2.315,2.315,0,0,1,.128-.394c.126-.005.295-.018.487-.011s.37-.007.524-.016c.026-.1.047-.177.065-.238.009-.042.028-.1.037-.165-.072-.018-.231-.046-.493-.089-.472-.091-.81-.156-1.017-.209l-.354-.1-1.5-.445-.1.466a.839.839,0,0,0,.179.061,2.168,2.168,0,0,1,.685.31,1.122,1.122,0,0,1,0,.175l-.056.233-.128.614-.084.279-.175.708c-.005.023-.1.382-.3,1.082l-.068.284-.305,1.206-.156.635a1.02,1.02,0,0,1-.209.429,2.213,2.213,0,0,1-.572.056c-.163-.005-.291-.005-.37,0l-.1.382C180.958,229.951,181.121,229.981,181.356,230.019Zm7.035-5.014a1.857,1.857,0,0,1,.384.307.626.626,0,0,1,.1.273c0,.056-.012.463-.058,1.21l-.147,1.611-.182,2.537c-.082.729-.13,1.148-.154,1.267s-.033.233-.047.351a2.117,2.117,0,0,0,.259.144,1.476,1.476,0,0,0,.242.121q.245-.205.822-.777l.1-.061c.3-.266.489-.419.533-.461.179-.165.361-.316.514-.451.177-.133.317-.259.461-.391l1.474-1.269a14.123,14.123,0,0,1,1.246-1.01.732.732,0,0,1,.224-.091,5.315,5.315,0,0,1,.894.088.893.893,0,0,0,.091-.179l.093-.156c-.124-.056-.291-.126-.487-.207a5.968,5.968,0,0,1-.708-.323c-.265-.145-.522-.3-.787-.473s-.428-.275-.479-.3a1.9,1.9,0,0,0-.139.214.562.562,0,0,0-.047.17c.047.039.116.075.181.126a.974.974,0,0,1,.163.121,1.05,1.05,0,0,1,.386.38.205.205,0,0,1,.016.21,1.3,1.3,0,0,1-.279.323q-.2.187-.563.536c-.074.082-.121.132-.167.174l-.326.268-1.415,1.285-.654.543c.033-.261.06-.543.077-.847l.119-1.538a13.746,13.746,0,0,1,.146-1.641l.074-.5a.211.211,0,0,1,.046-.116.189.189,0,0,1,.11-.1.734.734,0,0,1,.4.017c.058.012.263.088.6.216.018-.026.079-.167.2-.4l-.347-.189c-.119-.04-.289-.109-.51-.207-.3-.135-.5-.23-.594-.286a15.225,15.225,0,0,1-1.534-.9c-.039-.018-.135-.081-.293-.172l-.226.421Zm8.79,5.119c.061.067.1.135.158.188a3.549,3.549,0,0,1,.361.487c.032.053.068.105.086.138a.253.253,0,0,1,.056.172.822.822,0,0,0-.067.088l-.459.5-.447.428-.607.628-.454.424-1.476,1.445-.114.114c-.116.109-.189.186-.228.226a1.146,1.146,0,0,1-.331.237,3.246,3.246,0,0,1-.668-.445,3.707,3.707,0,0,0-.34-.258l-.27.272.479.459.156.163c.477.435.859.806,1.168,1.125.607.629,1.125,1.178,1.534,1.648.593.664.968,1.064,1.1,1.218.1.095.238.23.4.393l.517-.365.88-.577.151-.088a1.743,1.743,0,0,1,.184-.146,1.506,1.506,0,0,0-.133-.126,1.33,1.33,0,0,0-.205-.193,2.775,2.775,0,0,1-1.162.27,1.312,1.312,0,0,1-.719-.219,6.5,6.5,0,0,1-.983-.854,4.47,4.47,0,0,1-.876-1.069.3.3,0,0,1,.1-.314l.85-.81c.216-.2.475-.451.78-.754a1.1,1.1,0,0,1,.135-.13c.219.177.515.468.9.859a4.621,4.621,0,0,1,.536.612.391.391,0,0,1,.044.259,2.245,2.245,0,0,1-.326.586,3.586,3.586,0,0,0-.2.3l.272.284.084-.079c.079-.079.2-.193.331-.347.156-.16.261-.281.331-.344.054-.046.117-.11.193-.175s.265-.247.536-.51c.121-.116.3-.289.521-.535l-.221-.224-.061-.054a5.454,5.454,0,0,1-.708.422.54.54,0,0,1-.289.04,1.249,1.249,0,0,1-.435-.3c-.2-.182-.547-.507-.99-.971-.047-.049-.1-.112-.154-.184l.493-.475.666-.629c.447-.438.706-.684.768-.754.251.247.533.528.843.848.273.275.519.55.734.813.124.154.195.237.216.263a1.444,1.444,0,0,1,.216.284,2.573,2.573,0,0,1-.119.6l-.128.436c-.06.144-.11.249-.14.324.054.074.1.117.117.145l.165.153a.882.882,0,0,0,.075-.065l.158-.165.814-.791a.381.381,0,0,0,.131-.266A5.707,5.707,0,0,0,201.5,234l-.694-.708c-.458-.482-.978-.992-1.574-1.558-.393-.379-.628-.612-.717-.71a6.747,6.747,0,0,1-.657-.763c-.086-.126-.209-.263-.344-.428Zm1.287,10.939a1.64,1.64,0,0,0-.167.091l.124.212a5.744,5.744,0,0,0,.293.545l.387.659c.018.035.047.1.095.184.063.128.23.561.512,1.3l.105.2c.007.019.026.056.058.119a2.713,2.713,0,0,0,.382-.158,4.663,4.663,0,0,0-.144-.756,1.385,1.385,0,0,1-.049-.423l.945-.417,1.078-.559a2.757,2.757,0,0,1,.344-.149c.081.151.139.265.177.33a1.07,1.07,0,0,1,.146.556,2.373,2.373,0,0,1-.377.614c-.524.692-.91,1.183-1.157,1.481-.091.117-.231.3-.4.563l-.245.312c.03.061.07.126.123.212.116.188.177.3.195.33l.242.5c.072.153.131.288.175.4l.093.195.091.272.061.1.053.13a.4.4,0,0,0,.121-.051.46.46,0,0,0,.13-.1,1.65,1.65,0,0,0,0-.419,1.657,1.657,0,0,1,.005-.466,4.932,4.932,0,0,1,.4-.675l.894-1.408c.093-.144.21-.34.331-.57.067-.112.123-.2.177-.277a2.081,2.081,0,0,0,1.089.68,1.583,1.583,0,0,0,1.048-.117,1.7,1.7,0,0,0,.894-1.169,2.6,2.6,0,0,0-.268-1.855,12.96,12.96,0,0,0-.65-1.192l-.33-.6-.137-.256c-.014-.019-.063-.154-.167-.4-.119-.226-.193-.379-.23-.449a2.974,2.974,0,0,0-.258-.442l-.063.011-.289.149c.03.1.107.284.21.559l.079.314c-.182.1-.615.326-1.294.659-.314.153-.643.31-1,.477l-.272.116-.461.237-.6.272-1.085.542c-.275.13-.431.205-.479.224-.032,0-.084.016-.161.033a2.605,2.605,0,0,1-.328-.4,1.026,1.026,0,0,0-.289-.326A.748.748,0,0,0,198.467,241.064Zm4.425.6c.063.167.117.275.151.351a2,2,0,0,0,.882,1.045,1.1,1.1,0,0,0,.975-.042,2.041,2.041,0,0,0,.528-.365,1.2,1.2,0,0,0,.312-.414,1.473,1.473,0,0,0,.06-.619,2.789,2.789,0,0,0-.272-.731,1.853,1.853,0,0,0-.219-.373l-.091.035-.65.331-.419.182-.533.27c-.153.063-.345.156-.593.265Zm6.427,8.913a4.06,4.06,0,0,0-.06-.782,2.511,2.511,0,0,0-.952-1.693,2,2,0,0,0-1.564-.328,2.229,2.229,0,0,0-.847.391,1.918,1.918,0,0,0-.619.75,5.806,5.806,0,0,0-.356,1.494,4.8,4.8,0,0,1-.321,1.325,1.058,1.058,0,0,1-.668.512,1.106,1.106,0,0,1-.647-.1,1.155,1.155,0,0,1-.51-.482,1.993,1.993,0,0,1-.259-.619,1.663,1.663,0,0,1-.005-.624,1.278,1.278,0,0,1,.167-.535,2.181,2.181,0,0,1,.37-.454,7.251,7.251,0,0,1,.664-.475l-.105-.494-.207.039-.493.1c-.444.105-.685.16-.733.161l-.058.018c-.049.023-.084.044-.089.068a1.185,1.185,0,0,0-.068.366l-.068.685a4.963,4.963,0,0,0,.068.922,3.356,3.356,0,0,0,.281.913,2.728,2.728,0,0,0,.452.642,3.547,3.547,0,0,0,.48.431,1.522,1.522,0,0,0,.554.231,2.757,2.757,0,0,0,1.033-.007,2.22,2.22,0,0,0,.747-.27,2.156,2.156,0,0,0,.557-.559,2.351,2.351,0,0,0,.33-.8,5.017,5.017,0,0,0,.146-.854,3.163,3.163,0,0,1,.358-1.4,1.016,1.016,0,0,1,.608-.436.9.9,0,0,1,.74.175,1.271,1.271,0,0,1,.449.787,1.309,1.309,0,0,1-.256,1.052,2.9,2.9,0,0,1-.864.657v.063l.056.4.023.051a1.085,1.085,0,0,0,.207-.012,7.907,7.907,0,0,0,.857-.233c.237-.082.417-.151.535-.207A6.875,6.875,0,0,0,209.319,250.579Zm-6.753,4.448c.033.372.042.656.042.845l-.03.971c-.053.436-.079.68-.082.731-.014.072-.025.119-.025.137s0,.088.011.21v.1c.084.009.144.019.184.019.075,0,.172-.011.274-.019a3.25,3.25,0,0,0,.051-.338,6.182,6.182,0,0,1,.11-.61,1.16,1.16,0,0,1,.123-.011h.212l1.1.016.728.025,1.451.018c.33.007.8.019,1.425.044a3.09,3.09,0,0,1,.377-.009,1.761,1.761,0,0,1,.416.037,4.165,4.165,0,0,1,.14.468,2.634,2.634,0,0,0,.131.5,2.289,2.289,0,0,0,.233.019h.175c0-.072-.009-.245-.019-.5-.028-.484-.028-.824-.028-1.034,0-.049,0-.165.021-.365l.089-1.562h-.48a.868.868,0,0,0-.021.2,2.154,2.154,0,0,1-.14.727,1.169,1.169,0,0,1-.182.035l-.233.007-.624.011-.289-.021h-.736c-.021,0-.387-.023-1.115-.06h-.3l-1.25-.039h-.643a.945.945,0,0,1-.466-.105,2.187,2.187,0,0,1-.174-.54c-.039-.172-.067-.286-.088-.366l-.4-.005C202.534,254.632,202.552,254.787,202.566,255.027Zm6.69,6.157a10.846,10.846,0,0,1-1.266-.824,1.313,1.313,0,0,0-.286.261c-.009.049.03.119.11.242a3.42,3.42,0,0,1,.54.87,1.676,1.676,0,0,1-.084.691,9.793,9.793,0,0,1-.317,1.064.087.087,0,0,1-.044.063.1.1,0,0,1-.082.016,8.97,8.97,0,0,1-1.006-.235l-2.009-.516c-.929-.244-1.592-.435-2.02-.573a.806.806,0,0,1-.249-.135,5.459,5.459,0,0,1-.032-.831.789.789,0,0,0-.1-.5l-.046-.007-.124-.032c-.026,0-.07-.018-.123-.028-.018.065-.049.193-.084.4-.1.524-.163.847-.184.954-.181.664-.312,1.127-.41,1.373a8.85,8.85,0,0,0-.289.919,1.515,1.515,0,0,1-.047.195,1.338,1.338,0,0,0,.135.053c.026.005.107.018.233.028a1.846,1.846,0,0,0,.163-.256,2.238,2.238,0,0,0,.184-.37,2.007,2.007,0,0,1,.158-.293,1.489,1.489,0,0,1,.568.081l.692.186,1.681.437,1.551.417.722.193a1.807,1.807,0,0,1,.328.112,3.447,3.447,0,0,1-.082.379,10.088,10.088,0,0,1-.326,1.106.3.3,0,0,1-.128.13,2.75,2.75,0,0,1-.486.088,3.268,3.268,0,0,0-.673.151,1.88,1.88,0,0,0-.025.394,1.56,1.56,0,0,0,.244.091l.268.074.465.13q.752.184,1.1.279c.023-.067.035-.119.049-.156l.061-.233a1.379,1.379,0,0,0-.132-.093,1.031,1.031,0,0,1-.214-.21l.039-.33.438-1.639.321-1.192.175-.65.019-.1c.056-.212.123-.454.2-.731.11-.435.181-.673.2-.72a2.508,2.508,0,0,1,.4-.135.4.4,0,0,0,.105-.03l.088-.326C209.564,261.369,209.436,261.294,209.256,261.184Zm-2.989,9.279c-.021-.018-.054-.037-.067-.047a.44.44,0,0,0-.082-.028c-.217.219-.335.331-.37.358a.71.71,0,0,1-.207.1c-.337.023-.528.039-.563.039l-.952-.016-1.958.014a2.071,2.071,0,0,0-.326.019,1.317,1.317,0,0,1-.861-.128l-.107-.065c-.03-.021-.13-.082-.3-.191s-.489-.319-.962-.619c-.032-.021-.124-.081-.265-.175.01-.038.017-.084.028-.133l.377-.961c-.063-.044-.109-.075-.144-.1a.979.979,0,0,0-.145-.084l-.209.314a2.246,2.246,0,0,0-.2.361.85.85,0,0,1-.116.219l-.24.38-.331.519-.231.33-.361.465-.361.524a1.15,1.15,0,0,0,.128.088.533.533,0,0,0,.105.079.1.1,0,0,0,.114.019,1.979,1.979,0,0,0,.393-.442c.126-.135.2-.226.242-.265a.329.329,0,0,1,.082-.016l1.189.749a2.029,2.029,0,0,1,.235.17l.124.077.394.265.142.095a.572.572,0,0,1,.112.177c.11.21.293.664.552,1.339l.5,1.185a3.731,3.731,0,0,1,.395,1.048,1.665,1.665,0,0,1-.175.636l-.018.072.34.223a.84.84,0,0,1,.075-.135c.095-.166.16-.3.214-.412l.047-.077.142-.224a.469.469,0,0,1,.088-.1l.659-.915a2.869,2.869,0,0,0-.358-.188c-.028.028-.068.072-.117.126a1.364,1.364,0,0,1-.149.158.9.9,0,0,1-.146.186.387.387,0,0,1-.119.077.489.489,0,0,1-.1-.037.705.705,0,0,1-.142-.21l-.436-.843-.018-.042c-.221-.5-.375-.894-.479-1.189l-.361-.9a2.214,2.214,0,0,1,.33-.014h.221c.053,0,.114,0,.175,0,.035,0,.082,0,.114,0,.352.014.547.019.6.014.186,0,.379.005.577.005a8.087,8.087,0,0,1,1.438.018l.06.051v.039c-.068.147-.116.252-.156.342l-.091.224a1.158,1.158,0,0,0-.1.293l.228.156a.56.56,0,0,0,.109.035l.024-.035a.536.536,0,0,0,.033-.075,6.783,6.783,0,0,1,.419-.75c.153-.228.351-.521.631-.885a4.485,4.485,0,0,1,.284-.352l.025-.056a1.392,1.392,0,0,1,.116-.146l.039-.04a2.764,2.764,0,0,0,.338-.6A1.225,1.225,0,0,1,206.267,270.462Z" transform="translate(-140.229 -219.55)" fill="#fff" fill-rule="evenodd"/>
      </g>
      <g id="Group_203" data-name="Group 203" transform="translate(435.464 27.4)">
        <line id="Line_1" data-name="Line 1" x2="165.832" transform="translate(1.153 32.354)" fill="none" stroke="#461a55" stroke-width="1"/>
        <text id="Habib_University" data-name="Habib University" transform="translate(0 15)" fill="#461a55" font-size="22" font-family="ArnoPro-Bold, Arno Pro" font-weight="700" letter-spacing="0.028em"><tspan x="0" y="0">Habib University</tspan></text>
        <text id="shaping_futures" data-name="shaping futures" transform="translate(1.709 52.163)" fill="#461a55" font-size="18" font-family="ArnoPro-Bold, Arno Pro" font-weight="700" letter-spacing="0.2em"><tspan x="0" y="0">shaping futures</tspan></text>
      </g>
    </g>
  </g>
</svg>
